{
  "photos": {
    "page": 1,
    "pages": 194583,
    "perpage": 1,
    "total": "194583",
    "photo": [{
      "id": "36540809351",
      "owner": "26946559@N02",
      "secret": "b54f863d1a",
      "server": "4406",
      "farm": 5,
      "title": "Ducks at the Conservatory Water in Central Park.",
      "ispublic": 1,
      "isfriend": 0,
      "isfamily": 0,
      "latitude": "40.773480",
      "longitude": "-73.967725",
      "accuracy": "16",
      "context": 0,
      "place_id": "zzA0hmBTUb9GY797pA",
      "woeid": "23511893",
      "geo_is_family": 0,
      "geo_is_friend": 0,
      "geo_is_contact": 0,
      "geo_is_public": 1
    }]
  },
  "stat": "ok"
}
