{
  "photos": {
    "page": 1,
    "pages": 13830,
    "perpage": 10,
    "total": "138295",
    "photo": [{
      "id": "36540809351",
      "owner": "26946559@N02",
      "secret": "b54f863d1a",
      "server": "4406",
      "farm": 5,
      "title": "Ducks at the Conservatory Water in Central Park.",
      "ispublic": 1,
      "isfriend": 0,
      "isfamily": 0,
      "latitude": "40.773480",
      "longitude": "-73.967725",
      "accuracy": "16",
      "context": 0,
      "place_id": "zzA0hmBTUb9GY797pA",
      "woeid": "23511893",
      "geo_is_family": 0,
      "geo_is_friend": 0,
      "geo_is_contact": 0,
      "geo_is_public": 1
    }, {
      "id": "36679204725",
      "owner": "26946559@N02",
      "secret": "c8c29c297f",
      "server": "4376",
      "farm": 5,
      "title": "People in Central Park.",
      "ispublic": 1,
      "isfriend": 0,
      "isfamily": 0,
      "latitude": "40.773480",
      "longitude": "-73.967725",
      "accuracy": "16",
      "context": 0,
      "place_id": "zzA0hmBTUb9GY797pA",
      "woeid": "23511893",
      "geo_is_family": 0,
      "geo_is_friend": 0,
      "geo_is_contact": 0,
      "geo_is_public": 1
    }, {
      "id": "36679201205",
      "owner": "26946559@N02",
      "secret": "b3d9c53523",
      "server": "4415",
      "farm": 5,
      "title": "People in Central Park.",
      "ispublic": 1,
      "isfriend": 0,
      "isfamily": 0,
      "latitude": "40.772222",
      "longitude": "-73.966898",
      "accuracy": "16",
      "context": 0,
      "place_id": "zzA0hmBTUb9GY797pA",
      "woeid": "23511893",
      "geo_is_family": 0,
      "geo_is_friend": 0,
      "geo_is_contact": 0,
      "geo_is_public": 1
    }, {
      "id": "36679198135",
      "owner": "26946559@N02",
      "secret": "9c1a98a497",
      "server": "4424",
      "farm": 5,
      "title": "A couple at 5th Avenue and 72nd Street.",
      "ispublic": 1,
      "isfriend": 0,
      "isfamily": 0,
      "latitude": "40.772222",
      "longitude": "-73.966898",
      "accuracy": "16",
      "context": 0,
      "place_id": "zzA0hmBTUb9GY797pA",
      "woeid": "23511893",
      "geo_is_family": 0,
      "geo_is_friend": 0,
      "geo_is_contact": 0,
      "geo_is_public": 1
    }, {
      "id": "36679178735",
      "owner": "26946559@N02",
      "secret": "7856d1b42d",
      "server": "4380",
      "farm": 5,
      "title": "A couple alongside Park Avenue.",
      "ispublic": 1,
      "isfriend": 0,
      "isfamily": 0,
      "latitude": "40.768000",
      "longitude": "-73.966728",
      "accuracy": "16",
      "context": 0,
      "place_id": "zzA0hmBTUb9GY797pA",
      "woeid": "23511893",
      "geo_is_family": 0,
      "geo_is_friend": 0,
      "geo_is_contact": 0,
      "geo_is_public": 1
    }, {
      "id": "36679172815",
      "owner": "26946559@N02",
      "secret": "ab71a27b92",
      "server": "4347",
      "farm": 5,
      "title": "A flagger on Park Avenue at one of the cross streets open to traffic during \"Summer Streets\".",
      "ispublic": 1,
      "isfriend": 0,
      "isfamily": 0,
      "latitude": "40.765980",
      "longitude": "-73.967320",
      "accuracy": "16",
      "context": 0,
      "place_id": "zzA0hmBTUb9GY797pA",
      "woeid": "23511893",
      "geo_is_family": 0,
      "geo_is_friend": 0,
      "geo_is_contact": 0,
      "geo_is_public": 1
    }, {
      "id": "36679166685",
      "owner": "26946559@N02",
      "secret": "c607f736ee",
      "server": "4334",
      "farm": 5,
      "title": "A building near Park Avenue with fire escapes in the afternoon sunshine.",
      "ispublic": 1,
      "isfriend": 0,
      "isfamily": 0,
      "latitude": "40.765980",
      "longitude": "-73.967320",
      "accuracy": "16",
      "context": 0,
      "place_id": "zzA0hmBTUb9GY797pA",
      "woeid": "23511893",
      "geo_is_family": 0,
      "geo_is_friend": 0,
      "geo_is_contact": 0,
      "geo_is_public": 1
    }, {
      "id": "36540760211",
      "owner": "26946559@N02",
      "secret": "7215ae128e",
      "server": "4416",
      "farm": 5,
      "title": "People walking and biking on Park Avenue during \"Summer Streets\" when it's closed temporarily to motor vehicles.",
      "ispublic": 1,
      "isfriend": 0,
      "isfamily": 0,
      "latitude": "40.765411",
      "longitude": "-73.968598",
      "accuracy": "16",
      "context": 0,
      "place_id": "zzA0hmBTUb9GY797pA",
      "woeid": "23511893",
      "geo_is_family": 0,
      "geo_is_friend": 0,
      "geo_is_contact": 0,
      "geo_is_public": 1
    }, {
      "id": "36679157635",
      "owner": "26946559@N02",
      "secret": "b019d4936b",
      "server": "4425",
      "farm": 5,
      "title": "People walking and biking on Park Avenue during \"Summer Streets\" when it's closed temporarily to motor vehicles.",
      "ispublic": 1,
      "isfriend": 0,
      "isfamily": 0,
      "latitude": "40.763816",
      "longitude": "-73.970064",
      "accuracy": "16",
      "context": 0,
      "place_id": "zzA0hmBTUb9GY797pA",
      "woeid": "23511893",
      "geo_is_family": 0,
      "geo_is_friend": 0,
      "geo_is_contact": 0,
      "geo_is_public": 1
    }, {
      "id": "36679154215",
      "owner": "26946559@N02",
      "secret": "db5ddb5b22",
      "server": "4376",
      "farm": 5,
      "title": "People walking and biking on Park Avenue during \"Summer Streets\" when it's closed temporarily to motor vehicles.",
      "ispublic": 1,
      "isfriend": 0,
      "isfamily": 0,
      "latitude": "40.762625",
      "longitude": "-73.968514",
      "accuracy": "16",
      "context": 0,
      "place_id": "zzA0hmBTUb9GY797pA",
      "woeid": "23511893",
      "geo_is_family": 0,
      "geo_is_friend": 0,
      "geo_is_contact": 0,
      "geo_is_public": 1
    }]
  },
  "stat": "ok"
}
